\relax 
\select@language{english}
\@writefile{toc}{\select@language{english}}
\@writefile{lof}{\select@language{english}}
\@writefile{lot}{\select@language{english}}
\@writefile{toc}{\contentsline {section}{\numberline {1}Introduction}{2}}
\@writefile{toc}{\contentsline {section}{\numberline {2}Classes}{3}}
\newlabel{sec: classes}{{2}{3}}
\@writefile{lof}{\contentsline {figure}{\numberline {1}{\ignorespaces Class diagram of the tree growth simulator program.\relax }}{3}}
\providecommand*\caption@xref[2]{\@setref\relax\@undefined{#1}}
\newlabel{fig: class_diagram}{{1}{3}}
\@writefile{toc}{\contentsline {subsection}{\numberline {2.1}Tree}{4}}
\@writefile{toc}{\contentsline {subsubsection}{\numberline {2.1.1}sunexposure()}{4}}
\@writefile{loa}{\contentsline {algocf}{\numberline {1}{\ignorespaces Method used to calculate the averaged amount of sunlight received by a tree.\relax }}{4}}
\newlabel{alg: sunexposure}{{1}{4}}
\@writefile{toc}{\contentsline {subsubsection}{\numberline {2.1.2}sungrow()}{5}}
\newlabel{meth: sungrow}{{2.1.2}{5}}
\@writefile{toc}{\contentsline {subsubsection}{\numberline {2.1.3}getPositions()}{5}}
\newlabel{meth: getPostitions}{{2.1.3}{5}}
\@writefile{toc}{\contentsline {subsection}{\numberline {2.2}Land}{5}}
\newlabel{class: land}{{2.2}{5}}
\@writefile{toc}{\contentsline {subsubsection}{\numberline {2.2.1}setShade()}{6}}
\newlabel{meth: setShade}{{2.2.1}{6}}
\@writefile{toc}{\contentsline {subsubsection}{\numberline {2.2.2}resetShade()}{6}}
\newlabel{meth: resetShade}{{2.2.2}{6}}
\@writefile{toc}{\contentsline {subsubsection}{\numberline {2.2.3}shadow()}{6}}
\newlabel{meth: shadow}{{2.2.3}{6}}
\@writefile{loa}{\contentsline {algocf}{\numberline {2}{\ignorespaces Method used to cast shade on the \emph  {shademap} beneath a tree.\relax }}{7}}
\newlabel{alg: shadow}{{2}{7}}
\@writefile{toc}{\contentsline {subsection}{\numberline {2.3}Model}{7}}
\@writefile{toc}{\contentsline {subsubsection}{\numberline {2.3.1}simulate()}{7}}
\@writefile{loa}{\contentsline {algocf}{\numberline {3}{\ignorespaces Multithreaded model update method\relax }}{8}}
\newlabel{alg: simulate}{{3}{8}}
\@writefile{toc}{\contentsline {subsection}{\numberline {2.4}Simulator}{8}}
\@writefile{toc}{\contentsline {subsubsection}{\numberline {2.4.1}compute()}{9}}
\@writefile{loa}{\contentsline {algocf}{\numberline {4}{\ignorespaces Divide and Conquer recursive method to update a layer of trees.\relax }}{9}}
\newlabel{alg: compute}{{4}{9}}
\@writefile{toc}{\contentsline {subsection}{\numberline {2.5}Button Listener}{9}}
\newlabel{class: btn}{{2.5}{9}}
\@writefile{toc}{\contentsline {section}{\numberline {3}Model-View-Controller Design}{10}}
\newlabel{sec: mvc}{{3}{10}}
\@writefile{lof}{\contentsline {figure}{\numberline {2}{\ignorespaces Model-View-Controller implementation for the tree grow simulation program.\relax }}{10}}
\newlabel{fig: mvc}{{2}{10}}
\@writefile{toc}{\contentsline {section}{\numberline {4}Java Concurrency Features}{11}}
\newlabel{sec: conc_features}{{4}{11}}
\@writefile{toc}{\contentsline {subsection}{\numberline {4.1}Atomic Variables}{11}}
\@writefile{toc}{\contentsline {subsection}{\numberline {4.2}Synchronized Statements and Methods}{12}}
\@writefile{toc}{\contentsline {section}{\numberline {5}Code Details}{13}}
\newlabel{sec: code}{{5}{13}}
\@writefile{toc}{\contentsline {subsection}{\numberline {5.1}Thread Safety and Synchronisation}{13}}
\@writefile{lof}{\contentsline {figure}{\numberline {3}{\ignorespaces Illustrated example of an bad interleaving between two threads processing two trees\relax }}{13}}
\newlabel{fig: bad_interleaving}{{3}{13}}
\@writefile{toc}{\contentsline {subsection}{\numberline {5.2}Liveness and Deadlock}{14}}
\@writefile{toc}{\contentsline {section}{\numberline {6}Validation}{15}}
\newlabel{sec: validate}{{6}{15}}
\@writefile{lot}{\contentsline {table}{\numberline {1}{\ignorespaces Simulation execution times for multiple input sizes for both sequential and parallel programs.\relax }}{16}}
\newlabel{table: results}{{1}{16}}
\@writefile{lol}{\contentsline {lstlisting}{../out/correctSeqOutput\textunderscore 1yr.txt}{16}}
\@writefile{lol}{\contentsline {lstlisting}{../out/parallelOutput\textunderscore safe\textunderscore 1yr\textunderscore SC\textunderscore 2.txt}{16}}
\@writefile{toc}{\contentsline {section}{\numberline {7}Discussion}{17}}
\@writefile{toc}{\contentsline {section}{\numberline {A}Code}{i}}
\newlabel{app: code}{{A}{i}}
\@writefile{lol}{\contentsline {lstlisting}{../src/TreeGrow.java}{i}}
\@writefile{lol}{\contentsline {lstlisting}{../src/Tree.java}{iii}}
\@writefile{lol}{\contentsline {lstlisting}{../src/Land.java}{vi}}
\@writefile{lol}{\contentsline {lstlisting}{../src/Simulator.java}{viii}}
\@writefile{lol}{\contentsline {lstlisting}{../src/Model.java}{ix}}
\@writefile{lol}{\contentsline {lstlisting}{../src/ForestPanel.java}{x}}
\@writefile{lol}{\contentsline {lstlisting}{../src/ButtonListener.java}{xi}}
