This is BibTeX, Version 0.99d (TeX Live 2014)
Capacity: max_strings=35307, hash_size=35307, hash_prime=30011
The top-level auxiliary file: KLGMAT001_CSC2002S_Assignment2.aux
The style file: plain.bst
I couldn't open database file biblist.bib
---line 21 of file KLGMAT001_CSC2002S_Assignment2.aux
 : \bibdata{biblist
 :                 }
I'm skipping whatever remains of this command
I found no \citation commands---while reading file KLGMAT001_CSC2002S_Assignment2.aux
I found no database files---while reading file KLGMAT001_CSC2002S_Assignment2.aux
You've used 0 entries,
            2118 wiz_defined-function locations,
            497 strings with 4040 characters,
and the built_in function-call counts, 18 in all, are:
= -- 0
> -- 0
< -- 0
+ -- 0
- -- 0
* -- 2
:= -- 7
add.period$ -- 0
call.type$ -- 0
change.case$ -- 0
chr.to.int$ -- 0
cite$ -- 0
duplicate$ -- 0
empty$ -- 1
format.name$ -- 0
if$ -- 1
int.to.chr$ -- 0
int.to.str$ -- 0
missing$ -- 0
newline$ -- 3
num.names$ -- 0
pop$ -- 0
preamble$ -- 1
purify$ -- 0
quote$ -- 0
skip$ -- 1
stack$ -- 0
substring$ -- 0
swap$ -- 0
text.length$ -- 0
text.prefix$ -- 0
top$ -- 0
type$ -- 0
warning$ -- 0
while$ -- 0
width$ -- 0
write$ -- 2
(There were 3 error messages)
